## Autogenerated by Scribe. DO NOT MODIFY.

name: Laporan
description: ''
endpoints:
  -
    httpMethods:
      - POST
    uri: api/laporan/peminjaman
    metadata:
      groupName: Laporan
      groupDescription: ''
      subgroup: ''
      subgroupDescription: ''
      title: 'POST - Peminjaman List'
      description: ''
      authenticated: true
      custom: []
    headers:
      Authorization: 'Bearer 19|Xgbm28zB8HV1te9hkbqKcBfNoJwqBM5bPRlr31qoc3000ca6'
      Content-Type: application/json
      Accept: application/json
    urlParameters: []
    cleanUrlParameters: []
    queryParameters: []
    cleanQueryParameters: []
    bodyParameters:
      tgl_awal:
        name: tgl_awal
        description: 'start data.'
        required: true
        example: 2024/07/01
        type: date
        enumValues: []
        exampleWasSpecified: true
        custom: []
      tgl_akhir:
        name: tgl_akhir
        description: 'limit data.'
        required: true
        example: 2024/07/01
        type: date
        enumValues: []
        exampleWasSpecified: true
        custom: []
      filter:
        name: filter
        description: 'Text biasa bisa diisi bisa tidak.'
        required: true
        example: null
        type: string
        enumValues: []
        exampleWasSpecified: true
        custom: []
    cleanBodyParameters:
      tgl_awal: 2024/07/01
      tgl_akhir: 2024/07/01
      filter: null
    fileParameters: []
    responses:
      -
        status: 200
        content: |
          {
            "status": {
              "code": 200,
              "message": "Request Berhasil."
            },
            "data": {
              "peminjaman_id": 2,
              "peminjaman_no": "PJ/2406-0002",
              "peminjaman_pelanggan": "Pelanggan Umum",
              "peminjaman_tanggal": "2024-06-24",
              "peminjaman_tanggal_est_kembali": "2024-06-27",
              "peminjaman_total_est_denda": 15000,
              "peminjaman_stat_kembali": 0,
              "created_at": "2024-06-25 09:54:11",
              "created_by": null,
              "updated_at": "2024-06-25 17:46:39",
              "updated_by": "1462200195@gmail.com",
              "deleted_at": null,
              "deleted_by": null,
              "dataBukuList": [
                {
                  "pinjam_detail_id": 10,
                  "pinjam_detail_master_id": 2,
                  "pinjam_detail_buku_id": 10,
                  "pinjam_detail_qty": 3,
                  "pinjam_detail_denda": 5000,
                  "pinjam_detail_diskon": 0,
                  "pinjam_detail_diskon_rp": 0,
                  "pinjam_diskon_subtotal": 15000,
                  "pinjam_detail_buku_nama": "Dasar Dasar Web Jilid 1"
                }
              ]
            },
            "params": {
              "attributes": {},
              "request": {},
              "query": {},
              "server": {},
              "files": {},
              "cookies": {},
              "headers": {}
            },
            "request": []
          }
        headers: []
        description: ''
        custom: []
      -
        status: 404
        content: |
          {
              "status": {
                  "code": 404,
                  "message": "Data Tidak Ditemukan."
              },
              "data": null,
              "request": {
                  "param_1": 100,
                  "param_2": "example_value"
              }
          }
        headers: []
        description: ''
        custom: []
    responseFields: []
    auth:
      - headers
      - Authorization
      - 'Bearer eh643fkDaVb5v6a1cdPE8gZ'
    controller: null
    method: null
    route: null
    custom: []
  -
    httpMethods:
      - POST
    uri: api/laporan/peminjaman/cetak-list-pdf
    metadata:
      groupName: Laporan
      groupDescription: ''
      subgroup: ''
      subgroupDescription: ''
      title: 'POST - Laporan Peminjaman Cetak PDF'
      description: ''
      authenticated: true
      custom: []
    headers:
      Authorization: 'Bearer 19|Xgbm28zB8HV1te9hkbqKcBfNoJwqBM5bPRlr31qoc3000ca6'
      Content-Type: application/json
      Accept: application/json
    urlParameters: []
    cleanUrlParameters: []
    queryParameters: []
    cleanQueryParameters: []
    bodyParameters:
      tgl_awal:
        name: tgl_awal
        description: 'start data.'
        required: true
        example: 2024/07/01
        type: date
        enumValues: []
        exampleWasSpecified: true
        custom: []
      tgl_akhir:
        name: tgl_akhir
        description: 'limit data.'
        required: true
        example: 2024/07/01
        type: date
        enumValues: []
        exampleWasSpecified: true
        custom: []
      filter:
        name: filter
        description: 'Text biasa bisa diisi bisa tidak.'
        required: true
        example: null
        type: string
        enumValues: []
        exampleWasSpecified: true
        custom: []
    cleanBodyParameters:
      tgl_awal: 2024/07/01
      tgl_akhir: 2024/07/01
      filter: null
    fileParameters: []
    responses:
      -
        status: 200
        content: |
          {
            "status": {
              "code": 200,
              "message": "Request Berhasil."
            },
            "data": {
              "peminjaman_id": 2,
              "peminjaman_no": "PJ/2406-0002",
              "peminjaman_pelanggan": "Pelanggan Umum",
              "peminjaman_tanggal": "2024-06-24",
              "peminjaman_tanggal_est_kembali": "2024-06-27",
              "peminjaman_total_est_denda": 15000,
              "peminjaman_stat_kembali": 0,
              "created_at": "2024-06-25 09:54:11",
              "created_by": null,
              "updated_at": "2024-06-25 17:46:39",
              "updated_by": "1462200195@gmail.com",
              "deleted_at": null,
              "deleted_by": null,
              "dataBukuList": [
                {
                  "pinjam_detail_id": 10,
                  "pinjam_detail_master_id": 2,
                  "pinjam_detail_buku_id": 10,
                  "pinjam_detail_qty": 3,
                  "pinjam_detail_denda": 5000,
                  "pinjam_detail_diskon": 0,
                  "pinjam_detail_diskon_rp": 0,
                  "pinjam_diskon_subtotal": 15000,
                  "pinjam_detail_buku_nama": "Dasar Dasar Web Jilid 1"
                }
              ]
            },
            "params": {
              "attributes": {},
              "request": {},
              "query": {},
              "server": {},
              "files": {},
              "cookies": {},
              "headers": {}
            },
            "request": []
          }
        headers: []
        description: ''
        custom: []
      -
        status: 404
        content: |
          {
              "status": {
                  "code": 404,
                  "message": "Data Tidak Ditemukan."
              },
              "data": null,
              "request": {
                  "param_1": 100,
                  "param_2": "example_value"
              }
          }
        headers: []
        description: ''
        custom: []
    responseFields: []
    auth:
      - headers
      - Authorization
      - 'Bearer h4dgbZk6EDc8a3ePa56fvV1'
    controller: null
    method: null
    route: null
    custom: []
  -
    httpMethods:
      - POST
    uri: api/laporan/peminjaman/cetak-list-xls
    metadata:
      groupName: Laporan
      groupDescription: ''
      subgroup: ''
      subgroupDescription: ''
      title: 'POST - Laporan Peminjaman Cetak Xls'
      description: ''
      authenticated: true
      custom: []
    headers:
      Authorization: 'Bearer 19|Xgbm28zB8HV1te9hkbqKcBfNoJwqBM5bPRlr31qoc3000ca6'
      Content-Type: application/json
      Accept: application/json
    urlParameters: []
    cleanUrlParameters: []
    queryParameters: []
    cleanQueryParameters: []
    bodyParameters:
      tgl_awal:
        name: tgl_awal
        description: 'start data.'
        required: true
        example: 2024/07/01
        type: date
        enumValues: []
        exampleWasSpecified: true
        custom: []
      tgl_akhir:
        name: tgl_akhir
        description: 'limit data.'
        required: true
        example: 2024/07/01
        type: date
        enumValues: []
        exampleWasSpecified: true
        custom: []
      filter:
        name: filter
        description: 'Text biasa bisa diisi bisa tidak.'
        required: true
        example: null
        type: string
        enumValues: []
        exampleWasSpecified: true
        custom: []
    cleanBodyParameters:
      tgl_awal: 2024/07/01
      tgl_akhir: 2024/07/01
      filter: null
    fileParameters: []
    responses:
      -
        status: 200
        content: |
          {
            "status": {
              "code": 200,
              "message": "Request Berhasil."
            },
            "data": {
              "peminjaman_id": 2,
              "peminjaman_no": "PJ/2406-0002",
              "peminjaman_pelanggan": "Pelanggan Umum",
              "peminjaman_tanggal": "2024-06-24",
              "peminjaman_tanggal_est_kembali": "2024-06-27",
              "peminjaman_total_est_denda": 15000,
              "peminjaman_stat_kembali": 0,
              "created_at": "2024-06-25 09:54:11",
              "created_by": null,
              "updated_at": "2024-06-25 17:46:39",
              "updated_by": "1462200195@gmail.com",
              "deleted_at": null,
              "deleted_by": null,
              "dataBukuList": [
                {
                  "pinjam_detail_id": 10,
                  "pinjam_detail_master_id": 2,
                  "pinjam_detail_buku_id": 10,
                  "pinjam_detail_qty": 3,
                  "pinjam_detail_denda": 5000,
                  "pinjam_detail_diskon": 0,
                  "pinjam_detail_diskon_rp": 0,
                  "pinjam_diskon_subtotal": 15000,
                  "pinjam_detail_buku_nama": "Dasar Dasar Web Jilid 1"
                }
              ]
            },
            "params": {
              "attributes": {},
              "request": {},
              "query": {},
              "server": {},
              "files": {},
              "cookies": {},
              "headers": {}
            },
            "request": []
          }
        headers: []
        description: ''
        custom: []
      -
        status: 404
        content: |
          {
              "status": {
                  "code": 404,
                  "message": "Data Tidak Ditemukan."
              },
              "data": null,
              "request": {
                  "param_1": 100,
                  "param_2": "example_value"
              }
          }
        headers: []
        description: ''
        custom: []
    responseFields: []
    auth:
      - headers
      - Authorization
      - 'Bearer 1cD5PfhVaa6dbke843g6vEZ'
    controller: null
    method: null
    route: null
    custom: []
  -
    httpMethods:
      - POST
    uri: api/laporan/pengembalian
    metadata:
      groupName: Laporan
      groupDescription: ''
      subgroup: ''
      subgroupDescription: ''
      title: 'POST - Pengembalian List'
      description: ''
      authenticated: true
      custom: []
    headers:
      Authorization: 'Bearer 19|Xgbm28zB8HV1te9hkbqKcBfNoJwqBM5bPRlr31qoc3000ca6'
      Content-Type: application/json
      Accept: application/json
    urlParameters: []
    cleanUrlParameters: []
    queryParameters: []
    cleanQueryParameters: []
    bodyParameters:
      start:
        name: start
        description: 'start data.'
        required: true
        example: 0
        type: integer
        enumValues: []
        exampleWasSpecified: true
        custom: []
      limit:
        name: limit
        description: 'limit data.'
        required: true
        example: 10
        type: integer
        enumValues: []
        exampleWasSpecified: true
        custom: []
      filter:
        name: filter
        description: 'Text biasa bisa diisi bisa tidak.'
        required: true
        example: null
        type: string
        enumValues: []
        exampleWasSpecified: true
        custom: []
    cleanBodyParameters:
      start: 0
      limit: 10
      filter: null
    fileParameters: []
    responses:
      -
        status: 200
        content: |
          {
              "status": {
                "code": 200,
                "message": "Data Berhasil Ditampilkan."
              },
              "data": [
                {
                  "penjualan_id": 1,
                  "penjualan_no": "PJ/2406-0001",
                  "penjualan_pelanggan": "Pelanggan Umum",
                  "penjualan_tanggal": "2024-06-27",
                  "penjualan_total": 20000,
                  "penjualan_total_bayar": 20000,
                  "penjualan_total_kembalian": 0,
                  "penjualan_cara_bayar": null,
                  "created_at": "2024-06-25 09:53:54",
                  "created_by": "1462200195@gmail.com",
                  "updated_at": "2024-06-25 17:46:12",
                  "updated_by": "1462200195@gmail.com",
                  "deleted_at": null,
                  "deleted_by": null
                },
                {
                  "penjualan_id": 2,
                  "penjualan_no": "PJ/2406-0002",
                  "penjualan_pelanggan": "Pelanggan Umum",
                  "penjualan_tanggal": "2024-06-24",
                  "penjualan_total": 15000,
                  "penjualan_total_bayar": 15000,
                  "penjualan_total_kembalian": 0,
                  "penjualan_cara_bayar": null,
                  "created_at": "2024-06-25 09:54:11",
                  "created_by": "1462200195@gmail.com",
                  "updated_at": "2024-06-25 17:46:39",
                  "updated_by": "1462200195@gmail.com",
                  "deleted_at": null,
                  "deleted_by": null
                },
                {
                  "penjualan_id": 3,
                  "penjualan_no": "PJ/2406-0003",
                  "penjualan_pelanggan": "Pelanggan Umum",
                  "penjualan_tanggal": "2024-06-22",
                  "penjualan_total": 35000,
                  "penjualan_total_bayar": 40000,
                  "penjualan_total_kembalian": 5000,
                  "penjualan_cara_bayar": null,
                  "created_at": "2024-06-25 12:21:16",
                  "created_by": "1462200195@gmail.com",
                  "updated_at": "2024-06-25 15:27:03",
                  "updated_by": "1462200195@gmail.com",
                  "deleted_at": null,
                  "deleted_by": null
                },
                {
                  "penjualan_id": 4,
                  "penjualan_no": "PJ/2406-0004",
                  "penjualan_pelanggan": "Pelanggan Umum",
                  "penjualan_tanggal": "2024-06-25",
                  "penjualan_total": 20000,
                  "penjualan_total_bayar": 20000,
                  "penjualan_total_kembalian": 0,
                  "penjualan_cara_bayar": null,
                  "created_at": "2024-06-25 12:45:26",
                  "created_by": "1462200195@gmail.com",
                  "updated_at": "2024-06-25 15:27:24",
                  "updated_by": "1462200195@gmail.com",
                  "deleted_at": null,
                  "deleted_by": null
                },
                {
                  "penjualan_id": 5,
                  "penjualan_no": "PJ/2406-0005",
                  "penjualan_pelanggan": "Pelanggan Umum ubah",
                  "penjualan_tanggal": "2024-06-28",
                  "penjualan_total": 820000,
                  "penjualan_total_bayar": 1000000,
                  "penjualan_total_kembalian": 180000,
                  "penjualan_cara_bayar": null,
                  "created_at": "2024-06-25 13:01:40",
                  "created_by": "1462200195@gmail.com",
                  "updated_at": "2024-06-25 16:44:44",
                  "updated_by": "1462200195@gmail.com",
                  "deleted_at": null,
                  "deleted_by": null
                },
                {
                  "penjualan_id": 6,
                  "penjualan_no": "PJ/2406-0006",
                  "penjualan_pelanggan": "Pelanggan Umum",
                  "penjualan_tanggal": "2024-06-28",
                  "penjualan_total": 15000,
                  "penjualan_total_bayar": 20000,
                  "penjualan_total_kembalian": 5000,
                  "penjualan_cara_bayar": null,
                  "created_at": "2024-06-25 13:08:57",
                  "created_by": "1462200195@gmail.com",
                  "updated_at": "2024-06-25 13:08:57",
                  "updated_by": null,
                  "deleted_at": null,
                  "deleted_by": null
                },
                {
                  "penjualan_id": 7,
                  "penjualan_no": "PJ/2406-0007",
                  "penjualan_pelanggan": "Pelanggan Umum",
                  "penjualan_tanggal": "2024-06-22",
                  "penjualan_total": 8999,
                  "penjualan_total_bayar": 10000,
                  "penjualan_total_kembalian": 1001,
                  "penjualan_cara_bayar": null,
                  "created_at": "2024-06-25 13:58:44",
                  "created_by": "1462200195@gmail.com",
                  "updated_at": "2024-06-25 13:58:44",
                  "updated_by": null,
                  "deleted_at": null,
                  "deleted_by": null
                },
                {
                  "penjualan_id": 8,
                  "penjualan_no": "PJ/2406-0008",
                  "penjualan_pelanggan": "Pelanggan Umum",
                  "penjualan_tanggal": "2024-06-25",
                  "penjualan_total": 7000,
                  "penjualan_total_bayar": 10000,
                  "penjualan_total_kembalian": 3000,
                  "penjualan_cara_bayar": null,
                  "created_at": "2024-06-25 14:00:25",
                  "created_by": "1462200195@gmail.com",
                  "updated_at": "2024-06-25 14:00:25",
                  "updated_by": null,
                  "deleted_at": null,
                  "deleted_by": null
                },
                {
                  "penjualan_id": 9,
                  "penjualan_no": "PJ/2406-0009",
                  "penjualan_pelanggan": "Pelanggan Umum",
                  "penjualan_tanggal": "2024-06-22",
                  "penjualan_total": 7000,
                  "penjualan_total_bayar": 10000,
                  "penjualan_total_kembalian": 3000,
                  "penjualan_cara_bayar": null,
                  "created_at": "2024-06-25 14:07:26",
                  "created_by": "1462200195@gmail.com",
                  "updated_at": "2024-06-25 14:07:26",
                  "updated_by": null,
                  "deleted_at": null,
                  "deleted_by": null
                },
                {
                  "penjualan_id": 10,
                  "penjualan_no": "PJ/2406-0010",
                  "penjualan_pelanggan": "Pelanggan Umum",
                  "penjualan_tanggal": "2024-06-21",
                  "penjualan_total": 120000,
                  "penjualan_total_bayar": 130000,
                  "penjualan_total_kembalian": 10000,
                  "penjualan_cara_bayar": null,
                  "created_at": "2024-06-25 14:10:45",
                  "created_by": "1462200195@gmail.com",
                  "updated_at": "2024-06-25 14:10:45",
                  "updated_by": null,
                  "deleted_at": null,
                  "deleted_by": null
                }
              ],
              "paging": {
                "page": 1,
                "total_pages": 2,
                "records_per_page": 10,
                "total_records": 15
              },
              "request": {
                "start": 0,
                "limit": 10,
                "filter": null
              }
            }
        headers: []
        description: ''
        custom: []
      -
        status: 404
        content: |
          {
              "status": {
                  "code": 404,
                  "message": "Data Tidak Ditemukan."
              },
              "data": null,
              "request": {
                  "param_1": 100,
                  "param_2": "example_value"
              }
          }
        headers: []
        description: ''
        custom: []
    responseFields: []
    auth:
      - headers
      - Authorization
      - 'Bearer a3EbZa8kd5ehDfc16g6vP4V'
    controller: null
    method: null
    route: null
    custom: []
  -
    httpMethods:
      - POST
    uri: api/laporan/pengembalian/cetak-list-pdf
    metadata:
      groupName: Laporan
      groupDescription: ''
      subgroup: ''
      subgroupDescription: ''
      title: 'POST - Laporan Pengembalian Cetak PDF'
      description: ''
      authenticated: true
      custom: []
    headers:
      Authorization: 'Bearer 19|Xgbm28zB8HV1te9hkbqKcBfNoJwqBM5bPRlr31qoc3000ca6'
      Content-Type: application/json
      Accept: application/json
    urlParameters: []
    cleanUrlParameters: []
    queryParameters: []
    cleanQueryParameters: []
    bodyParameters:
      tgl_awal:
        name: tgl_awal
        description: 'start data.'
        required: true
        example: 2024/07/01
        type: date
        enumValues: []
        exampleWasSpecified: true
        custom: []
      tgl_akhir:
        name: tgl_akhir
        description: 'limit data.'
        required: true
        example: 2024/07/01
        type: date
        enumValues: []
        exampleWasSpecified: true
        custom: []
      filter:
        name: filter
        description: 'Text biasa bisa diisi bisa tidak.'
        required: true
        example: null
        type: string
        enumValues: []
        exampleWasSpecified: true
        custom: []
    cleanBodyParameters:
      tgl_awal: 2024/07/01
      tgl_akhir: 2024/07/01
      filter: null
    fileParameters: []
    responses:
      -
        status: 200
        content: |
          {
            "status": {
              "code": 200,
              "message": "Request Berhasil."
            },
            "data": {
              "peminjaman_id": 2,
              "peminjaman_no": "PJ/2406-0002",
              "peminjaman_pelanggan": "Pelanggan Umum",
              "peminjaman_tanggal": "2024-06-24",
              "peminjaman_tanggal_est_kembali": "2024-06-27",
              "peminjaman_total_est_denda": 15000,
              "peminjaman_stat_kembali": 0,
              "created_at": "2024-06-25 09:54:11",
              "created_by": null,
              "updated_at": "2024-06-25 17:46:39",
              "updated_by": "1462200195@gmail.com",
              "deleted_at": null,
              "deleted_by": null,
              "dataBukuList": [
                {
                  "pinjam_detail_id": 10,
                  "pinjam_detail_master_id": 2,
                  "pinjam_detail_buku_id": 10,
                  "pinjam_detail_qty": 3,
                  "pinjam_detail_denda": 5000,
                  "pinjam_detail_diskon": 0,
                  "pinjam_detail_diskon_rp": 0,
                  "pinjam_diskon_subtotal": 15000,
                  "pinjam_detail_buku_nama": "Dasar Dasar Web Jilid 1"
                }
              ]
            },
            "params": {
              "attributes": {},
              "request": {},
              "query": {},
              "server": {},
              "files": {},
              "cookies": {},
              "headers": {}
            },
            "request": []
          }
        headers: []
        description: ''
        custom: []
      -
        status: 404
        content: |
          {
              "status": {
                  "code": 404,
                  "message": "Data Tidak Ditemukan."
              },
              "data": null,
              "request": {
                  "param_1": 100,
                  "param_2": "example_value"
              }
          }
        headers: []
        description: ''
        custom: []
    responseFields: []
    auth:
      - headers
      - Authorization
      - 'Bearer e1v8ahfcd6b53gEak64DVZP'
    controller: null
    method: null
    route: null
    custom: []
  -
    httpMethods:
      - POST
    uri: api/laporan/pengembalian/cetak-list-xls
    metadata:
      groupName: Laporan
      groupDescription: ''
      subgroup: ''
      subgroupDescription: ''
      title: 'POST - Laporan Pengembalian Cetak Xls'
      description: ''
      authenticated: true
      custom: []
    headers:
      Authorization: 'Bearer 19|Xgbm28zB8HV1te9hkbqKcBfNoJwqBM5bPRlr31qoc3000ca6'
      Content-Type: application/json
      Accept: application/json
    urlParameters: []
    cleanUrlParameters: []
    queryParameters: []
    cleanQueryParameters: []
    bodyParameters:
      tgl_awal:
        name: tgl_awal
        description: 'start data.'
        required: true
        example: 2024/07/01
        type: date
        enumValues: []
        exampleWasSpecified: true
        custom: []
      tgl_akhir:
        name: tgl_akhir
        description: 'limit data.'
        required: true
        example: 2024/07/01
        type: date
        enumValues: []
        exampleWasSpecified: true
        custom: []
      filter:
        name: filter
        description: 'Text biasa bisa diisi bisa tidak.'
        required: true
        example: null
        type: string
        enumValues: []
        exampleWasSpecified: true
        custom: []
    cleanBodyParameters:
      tgl_awal: 2024/07/01
      tgl_akhir: 2024/07/01
      filter: null
    fileParameters: []
    responses:
      -
        status: 200
        content: |
          {
            "status": {
              "code": 200,
              "message": "Request Berhasil."
            },
            "data": {
              "peminjaman_id": 2,
              "peminjaman_no": "PJ/2406-0002",
              "peminjaman_pelanggan": "Pelanggan Umum",
              "peminjaman_tanggal": "2024-06-24",
              "peminjaman_tanggal_est_kembali": "2024-06-27",
              "peminjaman_total_est_denda": 15000,
              "peminjaman_stat_kembali": 0,
              "created_at": "2024-06-25 09:54:11",
              "created_by": null,
              "updated_at": "2024-06-25 17:46:39",
              "updated_by": "1462200195@gmail.com",
              "deleted_at": null,
              "deleted_by": null,
              "dataBukuList": [
                {
                  "pinjam_detail_id": 10,
                  "pinjam_detail_master_id": 2,
                  "pinjam_detail_buku_id": 10,
                  "pinjam_detail_qty": 3,
                  "pinjam_detail_denda": 5000,
                  "pinjam_detail_diskon": 0,
                  "pinjam_detail_diskon_rp": 0,
                  "pinjam_diskon_subtotal": 15000,
                  "pinjam_detail_buku_nama": "Dasar Dasar Web Jilid 1"
                }
              ]
            },
            "params": {
              "attributes": {},
              "request": {},
              "query": {},
              "server": {},
              "files": {},
              "cookies": {},
              "headers": {}
            },
            "request": []
          }
        headers: []
        description: ''
        custom: []
      -
        status: 404
        content: |
          {
              "status": {
                  "code": 404,
                  "message": "Data Tidak Ditemukan."
              },
              "data": null,
              "request": {
                  "param_1": 100,
                  "param_2": "example_value"
              }
          }
        headers: []
        description: ''
        custom: []
    responseFields: []
    auth:
      - headers
      - Authorization
      - 'Bearer kcfPbe48v3hg1aV5EaDd66Z'
    controller: null
    method: null
    route: null
    custom: []
